[
    {
        "type": "Main propre",
        "price": 0,
        "needAddress": false
    },
    {
        "type": "Relais colis",
        "price": 2.99,
        "needAddress": true
    },
    {
        "type": "Colissimo",
        "price": 5.99,
        "needAddress": true
    }
]